Pixel_3_API_29
{
  "deviceName": "emulator-5554",
  "platformName": "ANDROID",
  "platformVersion": "10",
  "automationName": "UiAutomator2"
}


iPhone 12 Pro
{
  "udid": "07074845-5572-4ECD-88F5-DB09F5F3446F",
  "platformName": "IOS",
  "automationName": "XCUITest",
  "deviceName": "iphone 12 Pro"
}


